%YAML 1.1
%TAG !u! tag:unity3d.com,2011:
--- !u!1 &2881337682632661963
GameObject:
  m_ObjectHideFlags: 0
  m_CorrespondingSourceObject: {fileID: 0}
  m_PrefabInstance: {fileID: 0}
  m_PrefabAsset: {fileID: 0}
  serializedVersion: 6
  m_Component:
  - component: {fileID: 4606721277677346646}
  - component: {fileID: 3251159729373357123}
  - component: {fileID: 5980638618692780803}
  m_Layer: 0
  m_Name: mesh
  m_TagString: Untagged
  m_Icon: {fileID: 0}
  m_NavMeshLayer: 0
  m_StaticEditorFlags: 0
  m_IsActive: 1
--- !u!4 &4606721277677346646
Transform:
  m_ObjectHideFlags: 0
  m_CorrespondingSourceObject: {fileID: 0}
  m_PrefabInstance: {fileID: 0}
  m_PrefabAsset: {fileID: 0}
  m_GameObject: {fileID: 2881337682632661963}
  m_LocalRotation: {x: 0, y: -0, z: -0, w: 1}
  m_LocalPosition: {x: -0, y: 0.005, z: 0}
  m_LocalScale: {x: 1, y: 1, z: 1}
  m_Children: []
  m_Father: {fileID: 6683132572671772171}
  m_RootOrder: 1
  m_LocalEulerAnglesHint: {x: 0, y: 0, z: 0}
--- !u!33 &3251159729373357123
MeshFilter:
  m_ObjectHideFlags: 0
  m_CorrespondingSourceObject: {fileID: 0}
  m_PrefabInstance: {fileID: 0}
  m_PrefabAsset: {fileID: 0}
  m_GameObject: {fileID: 2881337682632661963}
  m_Mesh: {fileID: -8670151273213183110, guid: dda92f9dbca134afb9a4c4e1770def8a, type: 3}
--- !u!23 &5980638618692780803
MeshRenderer:
  m_ObjectHideFlags: 0
  m_CorrespondingSourceObject: {fileID: 0}
  m_PrefabInstance: {fileID: 0}
  m_PrefabAsset: {fileID: 0}
  m_GameObject: {fileID: 2881337682632661963}
  m_Enabled: 1
  m_CastShadows: 1
  m_ReceiveShadows: 1
  m_DynamicOccludee: 1
  m_StaticShadowCaster: 0
  m_MotionVectors: 1
  m_LightProbeUsage: 1
  m_ReflectionProbeUsage: 1
  m_RayTracingMode: 2
  m_RayTraceProcedural: 0
  m_RenderingLayerMask: 1
  m_RendererPriority: 0
  m_Materials:
  - {fileID: -1770754231421851156, guid: dda92f9dbca134afb9a4c4e1770def8a, type: 3}
  m_StaticBatchInfo:
    firstSubMesh: 0
    subMeshCount: 0
  m_StaticBatchRoot: {fileID: 0}
  m_ProbeAnchor: {fileID: 0}
  m_LightProbeVolumeOverride: {fileID: 0}
  m_ScaleInLightmap: 1
  m_ReceiveGI: 1
  m_PreserveUVs: 0
  m_IgnoreNormalsForChartDetection: 0
  m_ImportantGI: 0
  m_StitchLightmapSeams: 1
  m_SelectedEditorRenderState: 3
  m_MinimumChartSize: 4
  m_AutoUVMaxDistance: 0.5
  m_AutoUVMaxAngle: 89
  m_LightmapParameters: {fileID: 0}
  m_SortingLayerID: 0
  m_SortingLayer: 0
  m_SortingOrder: 0
  m_AdditionalVertexStreams: {fileID: 0}
--- !u!1 &4982586396744019823
GameObject:
  m_ObjectHideFlags: 0
  m_CorrespondingSourceObject: {fileID: 0}
  m_PrefabInstance: {fileID: 0}
  m_PrefabAsset: {fileID: 0}
  serializedVersion: 6
  m_Component:
  - component: {fileID: 6734535725668553461}
  - component: {fileID: 6739840100997382895}
  - component: {fileID: 6572432837244912626}
  m_Layer: 0
  m_Name: mainmesh
  m_TagString: Untagged
  m_Icon: {fileID: 0}
  m_NavMeshLayer: 0
  m_StaticEditorFlags: 0
  m_IsActive: 1
--- !u!4 &6734535725668553461
Transform:
  m_ObjectHideFlags: 0
  m_CorrespondingSourceObject: {fileID: 0}
  m_PrefabInstance: {fileID: 0}
  m_PrefabAsset: {fileID: 0}
  m_GameObject: {fileID: 4982586396744019823}
  m_LocalRotation: {x: 0, y: -0, z: -0, w: 1}
  m_LocalPosition: {x: 6.24, y: 0.005, z: -0.24}
  m_LocalScale: {x: 1, y: 1, z: 1}
  m_Children:
  - {fileID: 2894062875310757136}
  - {fileID: 5217989432011564156}
  m_Father: {fileID: 6683132572671772171}
  m_RootOrder: 0
  m_LocalEulerAnglesHint: {x: 0, y: 0, z: 0}
--- !u!137 &6739840100997382895
SkinnedMeshRenderer:
  m_ObjectHideFlags: 0
  m_CorrespondingSourceObject: {fileID: 0}
  m_PrefabInstance: {fileID: 0}
  m_PrefabAsset: {fileID: 0}
  m_GameObject: {fileID: 4982586396744019823}
  m_Enabled: 1
  m_CastShadows: 1
  m_ReceiveShadows: 1
  m_DynamicOccludee: 1
  m_StaticShadowCaster: 0
  m_MotionVectors: 1
  m_LightProbeUsage: 1
  m_ReflectionProbeUsage: 1
  m_RayTracingMode: 3
  m_RayTraceProcedural: 0
  m_RenderingLayerMask: 1
  m_RendererPriority: 0
  m_Materials:
  - {fileID: -1770754231421851156, guid: dda92f9dbca134afb9a4c4e1770def8a, type: 3}
  m_StaticBatchInfo:
    firstSubMesh: 0
    subMeshCount: 0
  m_StaticBatchRoot: {fileID: 0}
  m_ProbeAnchor: {fileID: 0}
  m_LightProbeVolumeOverride: {fileID: 0}
  m_ScaleInLightmap: 1
  m_ReceiveGI: 1
  m_PreserveUVs: 0
  m_IgnoreNormalsForChartDetection: 0
  m_ImportantGI: 0
  m_StitchLightmapSeams: 1
  m_SelectedEditorRenderState: 3
  m_MinimumChartSize: 4
  m_AutoUVMaxDistance: 0.5
  m_AutoUVMaxAngle: 89
  m_LightmapParameters: {fileID: 0}
  m_SortingLayerID: 0
  m_SortingLayer: 0
  m_SortingOrder: 0
  serializedVersion: 2
  m_Quality: 0
  m_UpdateWhenOffscreen: 1
  m_SkinnedMotionVectors: 1
  m_Mesh: {fileID: -9157826035881844182, guid: dda92f9dbca134afb9a4c4e1770def8a, type: 3}
  m_Bones: []
  m_BlendShapeWeights: []
  m_RootBone: {fileID: 0}
  m_AABB:
    m_Center: {x: -2.6251109, y: 1.8334354, z: 0}
    m_Extent: {x: 8.385111, y: 1.8384355, z: 4.56}
  m_DirtyAABB: 0
--- !u!114 &6572432837244912626
MonoBehaviour:
  m_ObjectHideFlags: 0
  m_CorrespondingSourceObject: {fileID: 0}
  m_PrefabInstance: {fileID: 0}
  m_PrefabAsset: {fileID: 0}
  m_GameObject: {fileID: 4982586396744019823}
  m_Enabled: 1
  m_EditorHideFlags: 0
  m_Script: {fileID: 11500000, guid: d4fd1c35829494003a49fdc4710e778c, type: 3}
  m_Name: 
  m_EditorClassIdentifier: 
  gameManager: {fileID: 0}
  APTools: {fileID: 0}
  gameplayData:
    gameScore: 0
    currentLevelNumber: 0
    gameStartTime: 0
    gameEndTime: 0
    totalLevelCompletedTime: 0
    isGameoverSuccess: 0
  gameState: 0
--- !u!1 &6337850031080594609
GameObject:
  m_ObjectHideFlags: 0
  m_CorrespondingSourceObject: {fileID: 0}
  m_PrefabInstance: {fileID: 0}
  m_PrefabAsset: {fileID: 0}
  serializedVersion: 6
  m_Component:
  - component: {fileID: 6683132572671772171}
  - component: {fileID: 6572432837718106596}
  - component: {fileID: 6572432837718106597}
  m_Layer: 0
  m_Name: Level-1-_Blanket
  m_TagString: Untagged
  m_Icon: {fileID: 0}
  m_NavMeshLayer: 0
  m_StaticEditorFlags: 0
  m_IsActive: 0
--- !u!4 &6683132572671772171
Transform:
  m_ObjectHideFlags: 0
  m_CorrespondingSourceObject: {fileID: 0}
  m_PrefabInstance: {fileID: 0}
  m_PrefabAsset: {fileID: 0}
  m_GameObject: {fileID: 6337850031080594609}
  m_LocalRotation: {x: 0, y: 0, z: 0, w: 1}
  m_LocalPosition: {x: 0, y: 0, z: 0}
  m_LocalScale: {x: 1, y: 1, z: 1}
  m_Children:
  - {fileID: 6734535725668553461}
  - {fileID: 4606721277677346646}
  m_Father: {fileID: 0}
  m_RootOrder: 0
  m_LocalEulerAnglesHint: {x: 0, y: 0, z: 0}
--- !u!95 &6572432837718106596
Animator:
  serializedVersion: 3
  m_ObjectHideFlags: 0
  m_CorrespondingSourceObject: {fileID: 0}
  m_PrefabInstance: {fileID: 0}
  m_PrefabAsset: {fileID: 0}
  m_GameObject: {fileID: 6337850031080594609}
  m_Enabled: 1
  m_Avatar: {fileID: 0}
  m_Controller: {fileID: 0}
  m_CullingMode: 0
  m_UpdateMode: 0
  m_ApplyRootMotion: 0
  m_LinearVelocityBlending: 0
  m_WarningMessage: 
  m_HasTransformHierarchy: 1
  m_AllowConstantClipSamplingOptimization: 1
  m_KeepAnimatorControllerStateOnDisable: 0
--- !u!114 &6572432837718106597
MonoBehaviour:
  m_ObjectHideFlags: 0
  m_CorrespondingSourceObject: {fileID: 0}
  m_PrefabInstance: {fileID: 0}
  m_PrefabAsset: {fileID: 0}
  m_GameObject: {fileID: 6337850031080594609}
  m_Enabled: 1
  m_EditorHideFlags: 0
  m_Script: {fileID: 11500000, guid: 2a64a94d4238240dda4d8ba6c52d8408, type: 3}
  m_Name: 
  m_EditorClassIdentifier: 
  gameManager: {fileID: 0}
  APTools: {fileID: 0}
  gameplayData:
    gameScore: 0
    currentLevelNumber: 0
    gameStartTime: 0
    gameEndTime: 0
    totalLevelCompletedTime: 0
    isGameoverSuccess: 0
  gameState: 0
  paperMaterial: {fileID: 2100000, guid: 984951dda1eda434180bbd8be9dd902f, type: 2}
  defaultDatas:
    textureSequences:
    - fps: 7
      loopCount: 0
      textures:
      - {fileID: 2800000, guid: 35b5d9fee33994d70bd84bb22c1a996e, type: 3}
      - {fileID: 2800000, guid: 0df2512e2e0c74097850c73d170b3d22, type: 3}
  rollingDatas:
    textureSequences:
    - fps: 7
      loopCount: 0
      textures:
      - {fileID: 2800000, guid: 5a936a16b14d14fae8048c6f8fc07ec5, type: 3}
      - {fileID: 2800000, guid: 6cba6bb62ba8b4bb89f8d3ae9b1bdaba, type: 3}
  levelSuccessDatas:
    textureSequences:
    - fps: 7
      loopCount: 0
      textures:
      - {fileID: 2800000, guid: b62cc58aff8884b83a722a1023642842, type: 3}
      - {fileID: 2800000, guid: 1e43200a5b57f47f9ba674c8e56865c2, type: 3}
--- !u!1001 &6572432836242502266
PrefabInstance:
  m_ObjectHideFlags: 0
  serializedVersion: 2
  m_Modification:
    m_TransformParent: {fileID: 6734535725668553461}
    m_Modifications:
    - target: {fileID: 8294572842131122021, guid: 79a54a0d1bb72459dad880ed65f9122d, type: 3}
      propertyPath: m_Name
      value: DragStartPoint
      objectReference: {fileID: 0}
    - target: {fileID: 8294572842131122026, guid: 79a54a0d1bb72459dad880ed65f9122d, type: 3}
      propertyPath: m_RootOrder
      value: 0
      objectReference: {fileID: 0}
    - target: {fileID: 8294572842131122026, guid: 79a54a0d1bb72459dad880ed65f9122d, type: 3}
      propertyPath: m_LocalPosition.x
      value: 5
      objectReference: {fileID: 0}
    - target: {fileID: 8294572842131122026, guid: 79a54a0d1bb72459dad880ed65f9122d, type: 3}
      propertyPath: m_LocalPosition.y
      value: -0.005
      objectReference: {fileID: 0}
    - target: {fileID: 8294572842131122026, guid: 79a54a0d1bb72459dad880ed65f9122d, type: 3}
      propertyPath: m_LocalPosition.z
      value: -1
      objectReference: {fileID: 0}
    - target: {fileID: 8294572842131122026, guid: 79a54a0d1bb72459dad880ed65f9122d, type: 3}
      propertyPath: m_LocalRotation.w
      value: 1
      objectReference: {fileID: 0}
    - target: {fileID: 8294572842131122026, guid: 79a54a0d1bb72459dad880ed65f9122d, type: 3}
      propertyPath: m_LocalRotation.x
      value: -0
      objectReference: {fileID: 0}
    - target: {fileID: 8294572842131122026, guid: 79a54a0d1bb72459dad880ed65f9122d, type: 3}
      propertyPath: m_LocalRotation.y
      value: -0
      objectReference: {fileID: 0}
    - target: {fileID: 8294572842131122026, guid: 79a54a0d1bb72459dad880ed65f9122d, type: 3}
      propertyPath: m_LocalRotation.z
      value: -0
      objectReference: {fileID: 0}
    - target: {fileID: 8294572842131122026, guid: 79a54a0d1bb72459dad880ed65f9122d, type: 3}
      propertyPath: m_LocalEulerAnglesHint.x
      value: 0
      objectReference: {fileID: 0}
    - target: {fileID: 8294572842131122026, guid: 79a54a0d1bb72459dad880ed65f9122d, type: 3}
      propertyPath: m_LocalEulerAnglesHint.y
      value: 0
      objectReference: {fileID: 0}
    - target: {fileID: 8294572842131122026, guid: 79a54a0d1bb72459dad880ed65f9122d, type: 3}
      propertyPath: m_LocalEulerAnglesHint.z
      value: 0
      objectReference: {fileID: 0}
    m_RemovedComponents: []
  m_SourcePrefab: {fileID: 100100000, guid: 79a54a0d1bb72459dad880ed65f9122d, type: 3}
--- !u!4 &2894062875310757136 stripped
Transform:
  m_CorrespondingSourceObject: {fileID: 8294572842131122026, guid: 79a54a0d1bb72459dad880ed65f9122d, type: 3}
  m_PrefabInstance: {fileID: 6572432836242502266}
  m_PrefabAsset: {fileID: 0}
--- !u!1001 &6572432837686621270
PrefabInstance:
  m_ObjectHideFlags: 0
  serializedVersion: 2
  m_Modification:
    m_TransformParent: {fileID: 6734535725668553461}
    m_Modifications:
    - target: {fileID: 1396113040959000618, guid: 9d19b47460bed4d5ca3e68a2451beab0, type: 3}
      propertyPath: m_RootOrder
      value: 1
      objectReference: {fileID: 0}
    - target: {fileID: 1396113040959000618, guid: 9d19b47460bed4d5ca3e68a2451beab0, type: 3}
      propertyPath: m_LocalPosition.x
      value: -10.36
      objectReference: {fileID: 0}
    - target: {fileID: 1396113040959000618, guid: 9d19b47460bed4d5ca3e68a2451beab0, type: 3}
      propertyPath: m_LocalPosition.y
      value: -0.005
      objectReference: {fileID: 0}
    - target: {fileID: 1396113040959000618, guid: 9d19b47460bed4d5ca3e68a2451beab0, type: 3}
      propertyPath: m_LocalPosition.z
      value: -1
      objectReference: {fileID: 0}
    - target: {fileID: 1396113040959000618, guid: 9d19b47460bed4d5ca3e68a2451beab0, type: 3}
      propertyPath: m_LocalRotation.w
      value: 1
      objectReference: {fileID: 0}
    - target: {fileID: 1396113040959000618, guid: 9d19b47460bed4d5ca3e68a2451beab0, type: 3}
      propertyPath: m_LocalRotation.x
      value: -0
      objectReference: {fileID: 0}
    - target: {fileID: 1396113040959000618, guid: 9d19b47460bed4d5ca3e68a2451beab0, type: 3}
      propertyPath: m_LocalRotation.y
      value: -0
      objectReference: {fileID: 0}
    - target: {fileID: 1396113040959000618, guid: 9d19b47460bed4d5ca3e68a2451beab0, type: 3}
      propertyPath: m_LocalRotation.z
      value: -0
      objectReference: {fileID: 0}
    - target: {fileID: 1396113040959000618, guid: 9d19b47460bed4d5ca3e68a2451beab0, type: 3}
      propertyPath: m_LocalEulerAnglesHint.x
      value: 0
      objectReference: {fileID: 0}
    - target: {fileID: 1396113040959000618, guid: 9d19b47460bed4d5ca3e68a2451beab0, type: 3}
      propertyPath: m_LocalEulerAnglesHint.y
      value: 0
      objectReference: {fileID: 0}
    - target: {fileID: 1396113040959000618, guid: 9d19b47460bed4d5ca3e68a2451beab0, type: 3}
      propertyPath: m_LocalEulerAnglesHint.z
      value: 0
      objectReference: {fileID: 0}
    - target: {fileID: 1396113040959000619, guid: 9d19b47460bed4d5ca3e68a2451beab0, type: 3}
      propertyPath: m_Name
      value: DragEndPoint
      objectReference: {fileID: 0}
    m_RemovedComponents: []
  m_SourcePrefab: {fileID: 100100000, guid: 9d19b47460bed4d5ca3e68a2451beab0, type: 3}
--- !u!4 &5217989432011564156 stripped
Transform:
  m_CorrespondingSourceObject: {fileID: 1396113040959000618, guid: 9d19b47460bed4d5ca3e68a2451beab0, type: 3}
  m_PrefabInstance: {fileID: 6572432837686621270}
  m_PrefabAsset: {fileID: 0}
